Modelling population growth with biogrowth
…
static_prediction <- predict_isothermal_growth(my_model, my_time, my_pars)

This function returns an instance of IsothermalGrowth with the results of the simulation. It has three items:

simulation: A tibble with the results of the simulation.

model: The name of the model used for making the calculations.

pars: Vector of model parameters used for the calculations.

We can retrieve the results of the simulation from the simulation item

static_prediction$simulation
#> # A tibble: 1,000 x 2
#>     time  logN
#>    <dbl> <dbl>
#>  1 0        2.
#>  2 0.200    2.
#>  3 0.400    2.
#>  4 0.601    2.
#>  5 0.801    2.
#>  6 1.00     2.
#>  7 1.20     2.
#>  8 1.40     2.
#>  9 1.60     2.
#> 10 1.80     2.
#> # … with 990 more rows
…
simulation: A tibble with the results of the simulation.

gammas: A tibble describing the variation of each gamma factor through the simulation.

env_conditions: Environmental conditions used for the simulations.

primary_pars: Primary model parameters used for the simulations.

sec_models: Secondary model parameters used for the simulations.

The results of the simulation can be retrieved from the simulation item:

dynamic_prediction$simulation
#> # A tibble: 1,000 x 4
#>      time     Q     N  logN
#>     <dbl> <dbl> <dbl> <dbl>
#>  1 0      0.001     1     0
#>  2 0.0501 0.001     1     0
#>  3 0.100  0.001     1     0
#>  4 0.150  0.001     1     0
#>  5 0.200  0.001     1     0
#>  6 0.250  0.001     1     0
#>  7 0.300  0.001     1     0
#>  8 0.350  0.001     1     0
#>  9 0.400  0.001     1     0
#> 10 0.450  0.001     1     0
#> # … with 990 more rows
…
